…
``` r
# Remove Duplicates and print the output to CSV file
print(remove_duplicate_snp)
```

    ## # A tibble: 433 x 2
    ##    Population  `SNP rs`
    ##    <chr>          <dbl>
    ##  1 European    11655198
    ##  2 European     3104367
    ##  3 European   144829310
    ##  4 European     1837253
    ##  5 European   202011557
    ##  6 European     2305480
    ##  7 European    56375023
    ##  8 European     3894194
    ##  9 European     2290400
    ## 10 European     2428494
    ## # ... with 423 more rows
…
